{
    "manifest": {
        "displayName": "OpenFlexure Microscope",
        "invocationName": "OpenFlexure Microscope",
        "category": "PRODUCTIVITY"
    },
    "actions": [
        {
            "name": "org.openflexure.actions.Capture",
            "availability": {
                "deviceClasses": [
                    {
                        "assistantSdkDevice": {}
                    }
                ]
            },
            "intent": {
                "name": "org.openflexure.intents.Capture",
                "trigger": {
                    "queryPatterns": [
                        "capture (image)?"
                    ]
                }
            },
            "fulfillment": {
                "staticFulfillment": {
                    "templatedResponse": {
                        "items": [
                            {
                                "simpleResponse": {
                                    "textToSpeech": "Capturing image"
                                }
                            },
                            {
                                "deviceExecution": {
                                    "command": "org.openflexure.commands.capture",
                                    "params":{
                                        "blank":0
                                    }
                                }
                            }
                        ]
                    }
                }
            }
        },
        {
            "name": "org.openflexure.actions.Autofocus",
            "availability": {
                "deviceClasses": [
                    {
                        "assistantSdkDevice": {}
                    }
                ]
            },
            "intent": {
                "name": "org.openflexure.intents.Autofocus",
                "trigger": {
                    "queryPatterns": [
                        "autofocus"
                    ]
                }
            },
            "fulfillment": {
                "staticFulfillment": {
                    "templatedResponse": {
                        "items": [
                            {
                                "simpleResponse": {
                                    "textToSpeech": "Autofocussing"
                                }
                            },
                            {
                                "deviceExecution": {
                                    "command": "org.openflexure.commands.autofocus",
                                    "params":{
                                        "blank": 0
                                    }
                                }
                            }
                        ]
                    }
                }
            }
        },
        {
            "name": "org.openflexure.actions.MoveAxis",
            "availability": {
                "deviceClasses": [
                    {
                        "assistantSdkDevice": {}
                    }
                ]
            },
            "intent": {
                "name": "org.openflexure.intents.MoveAxis",
                "parameters":[
                    {
                        "name": "axis",
                        "type": "Axis"

                    },
                    {
                        "name": "direction",
                        "type": "Direction"
                    },
                    {
                        "name": "sign",
                        "type": "Sign"
                    },
                    {
                        "name": "steps",
                        "type": "SchemaOrg_Number"
                    }
                ],
                "trigger": {
                    "queryPatterns": [
                        "move $Axis:axis ($Direction:direction)? (by)? ($Sign:sign)? ($SchemaOrg_Number:steps)?"
                    ]
                }
            },
            "fulfillment": {
                "staticFulfillment": {
                    "templatedResponse": {
                        "items": [
                            {
                                "simpleResponse": {
                                    "textToSpeech": "Moving $axis.raw"
                                }
                            },
                            {
                                "deviceExecution": {
                                    "command": "org.openflexure.commands.move_axis",
                                    "params" : {
                                        "axis" : "$axis",
                                        "direction": "$direction",
                                        "sign": "$sign",
                                        "steps": "$steps"
                                    }
                                }
                            }
                        ]
                    }
                }
            }
        },
        {
            "name": "org.openflexure.actions.MoveRel",
            "availability": {
                "deviceClasses": [
                    {
                        "assistantSdkDevice": {}
                    }
                ]
            },
            "intent": {
                "name": "org.openflexure.intents.MoveRel",
                "parameters":[
                    {
                        "name": "x_steps",
                        "type": "SchemaOrg_Number"
                    },
                    {
                        "name": "y_steps",
                        "type": "SchemaOrg_Number"
                    },
                    {
                        "name": "z_steps",
                        "type": "SchemaOrg_Number"
                    }
                ],
                "trigger": {
                    "queryPatterns": [
                        "move by (x)?$SchemaOrg_Number:x_steps (y)?$SchemaOrg_Number:y_steps (z)?$SchemaOrg_Number:z_steps"
                    ]
                }
            },
            "fulfillment": {
                "staticFulfillment": {
                    "templatedResponse": {
                        "items": [
                            {
                                "simpleResponse": {
                                    "textToSpeech": "Moving by $x_steps, $y_steps, $z_steps"
                                }
                            },
                            {
                                "deviceExecution": {
                                    "command": "org.openflexure.commands.move_rel",
                                    "params" : {
                                        "x_steps": "$x_steps",
                                        "y_steps": "$y_steps",
                                        "z_steps": "$z_steps"
                                    }
                                }
                            }
                        ]
                    }
                }
            }
        },
        {
            "name": "org.openflexure.actions.MoveAbs",
            "availability": {
                "deviceClasses": [
                    {
                        "assistantSdkDevice": {}
                    }
                ]
            },
            "intent": {
                "name": "org.openflexure.intents.MoveAbs",
                "parameters":[
                    {
                        "name": "x_pos",
                        "type": "SchemaOrg_Number"
                    },
                    {
                        "name": "y_pos",
                        "type": "SchemaOrg_Number"
                    },
                    {
                        "name": "z_pos",
                        "type": "SchemaOrg_Number"
                    }
                ],
                "trigger": {
                    "queryPatterns": [
                        "move to (x)?$SchemaOrg_Number:x_pos (y)?$SchemaOrg_Number:y_pos (z)?$SchemaOrg_Number:z_pos"
                    ]
                }
            },
            "fulfillment": {
                "staticFulfillment": {
                    "templatedResponse": {
                        "items": [
                            {
                                "simpleResponse": {
                                    "textToSpeech": "Moving to $x_pos, $y_pos, $z_pos"
                                }
                            },
                            {
                                "deviceExecution": {
                                    "command": "org.openflexure.commands.move_abs",
                                    "params" : {
                                        "x_pos" : "$x_pos",
                                        "y_pos": "$y_pos",
                                        "z_pos": "$z_pos"
                                    }
                                }
                            }
                        ]
                    }
                }
            }
        }
    ],
    "types": [
        {
            "name": "$Axis",
            "entities": [
                {
                    "key": "X_AXIS",
                    "synonyms" : [
                        "x axis",
                        "x"
                    ]
                },
                {
                    "key": "Y_AXIS",
                    "synonyms" : [
                        "y axis",
                        "y"
                    ]
                },
                {
                    "key": "X_AXIS",
                    "synonyms" : [
                        "z axis",
                        "z"
                    ]
                }
            ]
        },
        {
            "name":"$Direction",
            "entities":[
                {
                    "key": "POSITIVE",
                    "synonyms" :[
                        "up"
                    ]
                },
                {
                    "key": "NEGATIVE",
                    "synonyms" :[
                        "down"
                    ]
                }
            ]
        },
        {
            "name": "$Sign",
            "entities":[
                {
                    "key":"POSITIVE",
                    "synonyms" :[
                        "positive",
                        "plus",
                        "+"
                    ]
                },
                {  
                    "key": "NEGATIVE",
                    "synonyms" :[
                        "minus",
                        "negative",
                        "-"
                    ]
                }
            ]
        }
    ]
}